{
  "project_info": {
    "project_number": "207235412584",
    "firebase_url": "https://e-and-i-app.firebaseio.com",
    "project_id": "e-and-i-app",
    "storage_bucket": "e-and-i-app.appspot.com"
  },
  "client": [
    {
      "client_info": {
        "mobilesdk_app_id": "1:207235412584:android:e62c93a3eef52968dc41dd",
        "android_client_info": {
          "package_name": "com.deep6ixed.domtar"
        }
      },
      "oauth_client": [
        {
          "client_id": "207235412584-469rkugdrg0qh6l9kpmr8b1ndpjvh172.apps.googleusercontent.com",
          "client_type": 3
        }
      ],
      "api_key": [
        {
          "current_key": "AIzaSyDI2AGDc-rTN2W9Gsonw4QPRuyiksPqBjY"
        }
      ],
      "services": {
        "appinvite_service": {
          "other_platform_oauth_client": [
            {
              "client_id": "207235412584-469rkugdrg0qh6l9kpmr8b1ndpjvh172.apps.googleusercontent.com",
              "client_type": 3
            }
          ]
        }
      }
    }
  ],
  "configuration_version": "1"
}